12 Tidy data | R for Data Science
…
You can represent the same underlying data in multiple ways. The example below shows the same data organised in four different ways. Each dataset shows the same values of four variables country, year, population, and cases, but each dataset organises the values in a different way.

table1
#> # A tibble: 6 x 4
#>   country      year  cases population
#>   <chr>       <int>  <int>      <int>
#> 1 Afghanistan  1999    745   19987071
#> 2 Afghanistan  2000   2666   20595360
#> 3 Brazil       1999  37737  172006362
#> 4 Brazil       2000  80488  174504898
#> 5 China        1999 212258 1272915272
#> 6 China        2000 213766 1280428583
table2
#> # A tibble: 12 x 4
#>   country      year type           count
#>   <chr>       <int> <chr>          <int>
#> 1 Afghanistan  1999 cases            745
#> 2 Afghanistan  1999 population  19987071
#> 3 Afghanistan  2000 cases           2666
#> 4 Afghanistan  2000 population  20595360
#> 5 Brazil       1999 cases          37737
#> 6 Brazil       1999 population 172006362
#> # ... with 6 more rows
#> # i Use `print(n = ...)` to see more rows
…
12.3.2 Wider

pivot_wider() is the opposite of pivot_longer(). You use it when an observation is scattered across multiple rows. For example, take table2: an observation is a country in a year, but each observation is spread across two rows.

table2
#> # A tibble: 12 x 4
#>   country      year type           count
#>   <chr>       <int> <chr>          <int>
#> 1 Afghanistan  1999 cases            745
#> 2 Afghanistan  1999 population  19987071
#> 3 Afghanistan  2000 cases           2666
#> 4 Afghanistan  2000 population  20595360
#> 5 Brazil       1999 cases          37737
#> 6 Brazil       1999 population 172006362
#> # ... with 6 more rows
#> # i Use `print(n = ...)` to see more rows
…
Another important tool for making missing values explicit in tidy data is complete():

stocks %>% 
  complete(year, qtr)
#> # A tibble: 8 x 3
#>    year   qtr return
#>   <dbl> <dbl>  <dbl>
#> 1  2015     1   1.88
#> 2  2015     2   0.59
#> 3  2015     3   0.35
#> 4  2015     4  NA   
#> 5  2016     1  NA   
#> 6  2016     2   0.92
#> # ... with 2 more rows
#> # i Use `print(n = ...)` to see more rows
…
12.5.1 Exercises

Compare and contrast the fill arguments to pivot_wider() and complete().

What does the direction argument to fill() do?

12.6 Case Study

To finish off the chapter, let’s pull together everything you’ve learned to tackle a realistic data tidying problem. The tidyr::who dataset contains tuberculosis (TB) cases broken down by year, country, age, gender, and diagnosis method. The data comes from the 2014 World Health Organization Global Tuberculosis Report, available at http://www.who.int/tb/country/data/download/en/.

There’s a wealth of epidemiological information in this dataset, but it’s challenging to work with the data in the form that it’s provided:

who
#> # A tibble: 7,240 x 60
#>   country     iso2  iso3   year new_sp~1 new_s~2 new_s~3 new_s~4 new_s~5 new_s~6
#>   <chr>       <chr> <chr> <int>    <int>   <int>   <int>   <int>   <int>   <int>
#> 1 Afghanistan AF    AFG    1980       NA      NA      NA      NA      NA      NA
#> 2 Afghanistan AF    AFG    1981       NA      NA      NA      NA      NA      NA
#> 3 Afghanistan AF    AFG    1982       NA      NA      NA      NA      NA      NA
#> 4 Afghanistan AF    AFG    1983       NA      NA      NA      NA      NA      NA
#> 5 Afghanistan AF    AFG    1984       NA      NA      NA      NA      NA      NA
#> 6 Afghanistan AF    AFG    1985       NA      NA      NA      NA      NA      NA
#> # ... with 7,234 more rows, 50 more variables: new_sp_m65 <int>,
#> #   new_sp_f014 <int>, new_sp_f1524 <int>, new_sp_f2534 <int>,
#> #   new_sp_f3544 <int>, new_sp_f4554 <int>, new_sp_f5564 <int>,
#> #   new_sp_f65 <int>, new_sn_m014 <int>, new_sn_m1524 <int>,
#> #   new_sn_m2534 <int>, new_sn_m3544 <int>, new_sn_m4554 <int>,
#> #   new_sn_m5564 <int>, new_sn_m65 <int>, new_sn_f014 <int>,
#> #   new_sn_f1524 <int>, new_sn_f2534 <int>, new_sn_f3544 <int>, ...
#> # i Use `print(n = ...)` to see more rows, and `colnames()` to see all variable names
…
We don’t know what all the other columns are yet, but given the structure
in the variable names (e.g. new_sp_m014, new_ep_m014, new_ep_f014)
these are likely to be values, not variables.

So we need to gather together all the columns from new_sp_m014 to newrel_f65. We don’t know what those values represent yet, so we’ll give them the generic name "key". We know the cells represent the count of cases, so we’ll use the variable cases. There are a lot of missing values in the current representation, so for now we’ll use values_drop_na just so we can focus on the values that are present.

who1 <- who %>% 
  pivot_longer(
    cols = new_sp_m014:newrel_f65, 
    names_to = "key", 
    values_to = "cases", 
    values_drop_na = TRUE
  )
who1
#> # A tibble: 76,046 x 6
#>   country     iso2  iso3   year key          cases
#>   <chr>       <chr> <chr> <int> <chr>        <int>
#> 1 Afghanistan AF    AFG    1997 new_sp_m014      0
#> 2 Afghanistan AF    AFG    1997 new_sp_m1524    10
#> 3 Afghanistan AF    AFG    1997 new_sp_m2534     6
#> 4 Afghanistan AF    AFG    1997 new_sp_m3544     3
#> 5 Afghanistan AF    AFG    1997 new_sp_m4554     5
#> 6 Afghanistan AF    AFG    1997 new_sp_m5564     2
#> # ... with 76,040 more rows
#> # i Use `print(n = ...)` to see more rows

We can get some hint of the structure of the values in the new key column by counting them:

who1 %>% 
  count(key)
#> # A tibble: 56 x 2
#>   key              n
#>   <chr>        <int>
#> 1 new_ep_f014   1032
#> 2 new_ep_f1524  1021
#> 3 new_ep_f2534  1021
#> 4 new_ep_f3544  1021
#> 5 new_ep_f4554  1017
#> 6 new_ep_f5564  1017
#> # ... with 50 more rows
#> # i Use `print(n = ...)` to see more rows
…
3544 = 35 – 44 years old

4554 = 45 – 54 years old

5564 = 55 – 64 years old

65 = 65 or older

We need to make a minor fix to the format of the column names: unfortunately the names are slightly inconsistent because instead of new_rel we have newrel (it’s hard to spot this here but if you don’t fix it we’ll get errors in subsequent steps). You’ll learn about str_replace() in strings, but the basic idea is pretty simple: replace the characters “newrel” with “new_rel”. This makes all variable names consistent.

who2 <- who1 %>% 
  mutate(key = stringr::str_replace(key, "newrel", "new_rel"))
who2
#> # A tibble: 76,046 x 6
#>   country     iso2  iso3   year key          cases
#>   <chr>       <chr> <chr> <int> <chr>        <int>
#> 1 Afghanistan AF    AFG    1997 new_sp_m014      0
#> 2 Afghanistan AF    AFG    1997 new_sp_m1524    10
#> 3 Afghanistan AF    AFG    1997 new_sp_m2534     6
#> 4 Afghanistan AF    AFG    1997 new_sp_m3544     3
#> 5 Afghanistan AF    AFG    1997 new_sp_m4554     5
#> 6 Afghanistan AF    AFG    1997 new_sp_m5564     2
#> # ... with 76,040 more rows
#> # i Use `print(n = ...)` to see more rows

We can separate the values in each code with two passes of separate(). The first pass will split the codes at each underscore.

who3 <- who2 %>% 
  separate(key, c("new", "type", "sexage"), sep = "_")
who3
#> # A tibble: 76,046 x 8
#>   country     iso2  iso3   year new   type  sexage cases
#>   <chr>       <chr> <chr> <int> <chr> <chr> <chr>  <int>
#> 1 Afghanistan AF    AFG    1997 new   sp    m014       0
#> 2 Afghanistan AF    AFG    1997 new   sp    m1524     10
#> 3 Afghanistan AF    AFG    1997 new   sp    m2534      6
#> 4 Afghanistan AF    AFG    1997 new   sp    m3544      3
#> 5 Afghanistan AF    AFG    1997 new   sp    m4554      5
#> 6 Afghanistan AF    AFG    1997 new   sp    m5564      2
#> # ... with 76,040 more rows
#> # i Use `print(n = ...)` to see more rows
…
who3 %>% 
  count(new)
#> # A tibble: 1 x 2
#>   new       n
#>   <chr> <int>
#> 1 new   76046
who4 <- who3 %>% 
  select(-new, -iso2, -iso3)

Next we’ll separate sexage into sex and age by splitting after the first character:

who5 <- who4 %>% 
  separate(sexage, c("sex", "age"), sep = 1)
who5
#> # A tibble: 76,046 x 6
#>   country      year type  sex   age   cases
#>   <chr>       <int> <chr> <chr> <chr> <int>
#> 1 Afghanistan  1997 sp    m     014       0
#> 2 Afghanistan  1997 sp    m     1524     10
#> 3 Afghanistan  1997 sp    m     2534      6
#> 4 Afghanistan  1997 sp    m     3544      3
#> 5 Afghanistan  1997 sp    m     4554      5
#> 6 Afghanistan  1997 sp    m     5564      2
#> # ... with 76,040 more rows
#> # i Use `print(n = ...)` to see more rows
…
